{
    "manifestVersion": 1,
    "deployments": {
        "aspNetCoreWeb": [
        {
            "name": "Zeichnungsdatenbank",
            "parameters": {
                "appBundle": "site.zip",
                "iisPath": "/",
                "iisWebSite": "Zeichnungsdatenbank"
            }
        }
        ]
    }
}